{"openapi":"3.1.0","info":{"title":"BaaS Wallet Reports","version":"2.0.0"},"servers":[{"url":"https://sandbox.openfinance.celcoin.dev/baas-walletreports/v1"}],"components":{"securitySchemes":{"sec0":{"type":"oauth2","flows":{}}}},"security":[{"sec0":[]}],"paths":{"/wallet/balance":{"get":{"summary":"Consultar Saldo","description":"Confira nosso tutorial -> https://developers.celcoin.com.br/docs/consultar-saldo-1","operationId":"consultar-saldo","parameters":[{"name":"Account","in":"query","description":"Numero da conta que deseja buscar.","schema":{"type":"string"}},{"name":"DocumentNumber","in":"query","description":"Numero do CPF ou CNPJ da conta que deseja buscar.","schema":{"type":"string"}}],"responses":{"200":{"description":"200","content":{"application/json":{"examples":{"Result":{"value":"{\n  \"status\": \"SUCCESS\",\n  \"version\": \"1.0.0\",\n  \"body\": {\n    \"amount\": 1.1\n  }\n}"}},"schema":{"type":"object","properties":{"status":{"type":"string","example":"SUCCESS"},"version":{"type":"string","example":"1.0.0"},"body":{"type":"object","properties":{"amount":{"type":"number","example":1.1,"default":0}}}}}}}},"400":{"description":"400","content":{"application/json":{"examples":{"Result":{"value":"{\n  \"version\": \"1.0.0\",\n  \"status\": \"ERROR\",\n  \"error\": {\n    \"errorCode\": \"CIE999\",\n    \"message\": \"Ocorreu um erro interno durante a chamada da api..\"\n  }\n}"}},"schema":{"type":"object","properties":{"version":{"type":"string","example":"1.0.0"},"status":{"type":"string","example":"ERROR"},"error":{"type":"object","properties":{"errorCode":{"type":"string","example":"CIE999"},"message":{"type":"string","example":"Ocorreu um erro interno durante a chamada da api.."}}}}}}}},"404":{"description":"404","content":{"application/json":{"examples":{"Result":{"value":"{\n  \"version\": \"1.0.0\",\n  \"status\": \"ERROR\",\n  \"error\": {\n    \"errorCode\": \"CIE999\",\n    \"message\": \"Ocorreu um erro interno durante a chamada da api..\"\n  }\n}"}},"schema":{"type":"object","properties":{"version":{"type":"string","example":"1.0.0"},"status":{"type":"string","example":"ERROR"},"error":{"type":"object","properties":{"errorCode":{"type":"string","example":"CIE999"},"message":{"type":"string","example":"Ocorreu um erro interno durante a chamada da api.."}}}}}}}},"500":{"description":"500","content":{"application/json":{"examples":{"Result":{"value":"{\n  \"version\": \"1.0.0\",\n  \"status\": \"ERROR\",\n  \"error\": {\n    \"errorCode\": \"CIE999\",\n    \"message\": \"Ocorreu um erro interno durante a chamada da api..\"\n  }\n}"}},"schema":{"type":"object","properties":{"version":{"type":"string","example":"1.0.0"},"status":{"type":"string","example":"ERROR"},"error":{"type":"object","properties":{"errorCode":{"type":"string","example":"CIE999"},"message":{"type":"string","example":"Ocorreu um erro interno durante a chamada da api.."}}}}}}}}},"deprecated":false}},"/wallet/movement":{"get":{"summary":"Consultar Extrato","description":"Confira nosso tutorial -> https://developers.celcoin.com.br/docs/consultar-extrato-1","operationId":"consultar-extrato","parameters":[{"name":"Account","in":"query","description":"Numero da conta que deseja buscar.","schema":{"type":"string"}},{"name":"DocumentNumber","in":"query","description":"Numero do CPF ou CNPJ da conta que deseja buscar.","schema":{"type":"string"}},{"name":"DateFrom","in":"query","description":"Data inicial de extrato","required":true,"schema":{"type":"string","default":"yyyy-MM-dd"}},{"name":"DateTo","in":"query","description":"Data final de extrato","required":true,"schema":{"type":"string","default":"yyyy-MM-dd"}},{"name":"LimitPerPage","in":"query","description":"Limite de extrato na busca.","schema":{"type":"string"}},{"name":"Page","in":"query","description":"Pagina de solicitaçao.","schema":{"type":"string"}}],"responses":{"200":{"description":"200","content":{"application/json":{"examples":{"Result":{"value":"{\n  \"status\": \"SUCCESS\",\n  \"version\": \"1.0.0\",\n  \"totalItems\": 200,\n  \"currentPage\": 1,\n  \"totalPages\": 10,\n  \"dateFrom\": \"2022-01-01\",\n  \"dateTo\": \"2022-01-02\",\n  \"body\": {\n    \"account\": \"300151\",\n    \"documentNumber\": \"34335125070\",\n    \"movements\": [\n      {\n        \"id\": \"aa99877c-6205-45ce-8fd8-18173fdd782a\",\n        \"clientCode\": \"7a2a4ea2-ee65-4b3d-8e1d-311dd45d3017\",\n        \"description\": \"Recebimento Pix\",\n        \"createDate\": \"2022-08-31T17:19:55\",\n        \"lastUpdateDate\": \"2022-08-31T17:19:55\",\n        \"amount\": 10.12,\n        \"status\": \"Saldo Liberado\",\n        \"balanceType\": \"CREDIT\",\n        \"movementType\": \"PIXPAYMENTIN\"\n      }\n    ]\n  }\n}"}},"schema":{"type":"object","properties":{"status":{"type":"string","example":"SUCCESS"},"version":{"type":"string","example":"1.0.0"},"totalItems":{"type":"integer","example":200,"default":0},"currentPage":{"type":"integer","example":1,"default":0},"totalPages":{"type":"integer","example":10,"default":0},"dateFrom":{"type":"string","example":"2022-01-01"},"dateTo":{"type":"string","example":"2022-01-02"},"body":{"type":"object","properties":{"account":{"type":"string","example":"300151"},"documentNumber":{"type":"string","example":"34335125070"},"movements":{"type":"array","items":{"type":"object","properties":{"id":{"type":"string","example":"aa99877c-6205-45ce-8fd8-18173fdd782a"},"clientCode":{"type":"string","example":"7a2a4ea2-ee65-4b3d-8e1d-311dd45d3017"},"description":{"type":"string","example":"Recebimento Pix"},"createDate":{"type":"string","example":"2022-08-31T17:19:55"},"lastUpdateDate":{"type":"string","example":"2022-08-31T17:19:55"},"amount":{"type":"number","example":10.12,"default":0},"status":{"type":"string","example":"Saldo Liberado"},"balanceType":{"type":"string","example":"CREDIT"},"movementType":{"type":"string","example":"PIXPAYMENTIN"}}}}}}}}}}},"400":{"description":"400","content":{"application/json":{"examples":{"Result":{"value":"{\n  \"status\": \"ERROR\",\n  \"version\": \"1.0.0\",\n  \"error\": {\n    \"errorCode\": \"CIE999\",\n    \"message\": \"Ocorreu um erro interno durante a chamada da api..\"\n  }\n}"}},"schema":{"type":"object","properties":{"status":{"type":"string","example":"ERROR"},"version":{"type":"string","example":"1.0.0"},"error":{"type":"object","properties":{"errorCode":{"type":"string","example":"CIE999"},"message":{"type":"string","example":"Ocorreu um erro interno durante a chamada da api.."}}}}}}}},"404":{"description":"404","content":{"application/json":{"examples":{"Result":{"value":"{\n  \"version\": \"1.0.0\",\n  \"status\": \"ERROR\",\n  \"error\": {\n    \"errorCode\": \"CIE999\",\n    \"message\": \"Ocorreu um erro interno durante a chamada da api..\"\n  }\n}"}},"schema":{"type":"object","properties":{"version":{"type":"string","example":"1.0.0"},"status":{"type":"string","example":"ERROR"},"error":{"type":"object","properties":{"errorCode":{"type":"string","example":"CIE999"},"message":{"type":"string","example":"Ocorreu um erro interno durante a chamada da api.."}}}}}}}},"500":{"description":"500","content":{"application/json":{"examples":{"Result":{"value":"{\n  \"version\": \"1.0.0\",\n  \"status\": \"ERROR\",\n  \"error\": {\n    \"errorCode\": \"CIE999\",\n    \"message\": \"Ocorreu um erro interno durante a chamada da api..\"\n  }\n}"}},"schema":{"type":"object","properties":{"version":{"type":"string","example":"1.0.0"},"status":{"type":"string","example":"ERROR"},"error":{"type":"object","properties":{"errorCode":{"type":"string","example":"CIE999"},"message":{"type":"string","example":"Ocorreu um erro interno durante a chamada da api.."}}}}}}}}},"deprecated":false}}},"x-readme":{"headers":[],"explorer-enabled":true,"proxy-enabled":true},"x-readme-fauxas":true}